Analyse data task
…
check that we have all the right number of trials by condition

taskAll %>%
  group_by(participant, condition) %>%
  tally()

## # A tibble: 62 x 3
## # Groups:   participant [31]
##    participant condition     n
##          <int>     <int> <int>
##  1           1         0    60
##  2           1         1    60
##  3           2         0    60
##  4           2         1    60
##  5           3         0    60
##  6           3         1    60
##  7           4         0    60
##  8           4         1    60
##  9           5         0    60
## 10           5         1    60
## #  with 52 more rows
…
